<?xml version="1.0" encoding="utf-8"?>
<!-- Generator: Adobe Illustrator 16.0.0, SVG Export Plug-In . SVG Version: 6.00 Build 0)  -->
<!DOCTYPE svg PUBLIC "-//W3C//DTD SVG 1.1//EN" "http://www.w3.org/Graphics/SVG/1.1/DTD/svg11.dtd">
<svg version="1.1" id="Calque_1" xmlns="http://www.w3.org/2000/svg" xmlns:xlink="http://www.w3.org/1999/xlink" x="0px" y="0px"
	 width="14px" height="9.802px" viewBox="0 0 14 9.802" enable-background="new 0 0 14 9.802" xml:space="preserve">
<g>
	<path fill="#C3322D" d="M1.107,0.58L6.15,4.574c0.228,0.179,0.544,0.26,0.849,0.246C7.306,4.834,7.62,4.756,7.85,4.574l5.043-3.995
		C13.296,0.26,13.205,0,12.692,0H1.308C0.795,0,0.704,0.26,1.107,0.58L1.107,0.58z M1.107,0.58"/>
	<path fill="#C3322D" d="M13.257,1.632L7.745,5.816c-0.206,0.154-0.476,0.23-0.743,0.229c-0.27,0.002-0.54-0.074-0.746-0.229
		L0.744,1.632C0.333,1.323,0,1.49,0,2.002v6.865C0,9.38,0.419,9.802,0.932,9.802h12.135C13.58,9.802,14,9.38,14,8.867V2.002
		C14,1.49,13.666,1.323,13.257,1.632L13.257,1.632z M13.257,1.632"/>
</g>
</svg>
